ggplot2
…
---

# Lets look at some examples using **PanTHERIA** dataset

**Load the data**

```r
pantheria<- read_csv("data/sub_PanTHERIA.csv") %>% 
  na.omit() %>% mutate(HabitatBreadth = as.character(HabitatBreadth))
pantheria
```

```
## # A tibble: 47 x 20
##    Order Family Genus Species Binomial ActivityCycle AdultBodyMass
##    <chr> <chr>  <chr> <chr>   <chr>    <chr>                 <dbl>
##  1 Carn… Canid… Canis lupus   Canis l… both                31757. 
##  2 Dide… Didel… Calu… philan… Calurom… nocturnal             246. 
##  3 Peri… Equid… Equus zebra   Equus z… diurnal            282462. 
##  4 Erin… Erina… Erin… europa… Erinace… both                  778. 
##  5 Arti… Bovid… Bison bison   Bison b… both               624577. 
##  6 Sori… Soric… Blar… brevic… Blarina… nocturnal              18.6
##  7 Dide… Didel… Dide… marsup… Didelph… nocturnal            1135. 
##  8 Dide… Didel… Dide… virgin… Didelph… nocturnal            2442. 
##  9 Prim… Lemur… Eule… macaco  Eulemur… both                 2470. 
## 10 Prim… Lemur… Eule… mongoz  Eulemur… both                 1771. 
## # … with 37 more rows, and 13 more variables: AgeatFirstBirth <dbl>,
## #   DietBreadth <dbl>, GestationLen <dbl>, HabitatBreadth <chr>,
## #   HomeRange <dbl>, LitterSize <dbl>, LittersPerYear <dbl>,
## #   MaxLongevity <dbl>, NeonateBodyMass <dbl>, PopulationDensity <dbl>,
## #   SexualMaturityAge <dbl>, Terrestriality <chr>, TrophicLevel <chr>
```
…
